…
Meteors are meteoroids that enter the Earth’s atmosphere and burn up. This can produce meteor showers. These are usually objects that we see with a tail in the sky.

A meteorite is a meteor that has survived the Earth’s atmosphere and landed on the ground.

library(tidyverse)
library(gganimate)

meteors <- readr::read_csv("https://raw.githubusercontent.com/rfordatascience/tidytuesday/master/data/2019/2019-06-11/meteorites.csv")

There can be lots that can be discovered from the data, however, today we will only focus on the year and meteors that fell to Earth.

meteors

## # A tibble: 45,716 x 10
##    name       id name_type class    mass fall   year   lat     long geolocation 
##    <chr>   <dbl> <chr>     <chr>   <dbl> <chr> <dbl> <dbl>    <dbl> <chr>       
##  1 Aachen      1 Valid     L5         21 Fell   1880  50.8    6.08  (50.775, 6.~
##  2 Aarhus      2 Valid     H6        720 Fell   1951  56.2   10.2   (56.18333, ~
##  3 Abee        6 Valid     EH4    107000 Fell   1952  54.2 -113     (54.21667, ~
##  4 Acapul~    10 Valid     Acapu~   1914 Fell   1976  16.9  -99.9   (16.88333, ~
##  5 Achiras   370 Valid     L6        780 Fell   1902 -33.2  -65.0   (-33.16667,~
##  6 Adhi K~   379 Valid     EH4      4239 Fell   1919  32.1   71.8   (32.1, 71.8)
##  7 Adzhi-~   390 Valid     LL3-6     910 Fell   1949  44.8   95.2   (44.83333, ~
##  8 Agen      392 Valid     H5      30000 Fell   1814  44.2    0.617 (44.21667, ~
##  9 Aguada    398 Valid     L6       1620 Fell   1930 -31.6  -65.2   (-31.6, -65~
## 10 Aguila~   417 Valid     L        1440 Fell   1920 -30.9  -64.6   (-30.86667,~
## # ... with 45,706 more rows
…
